module gitlab.com/beeper/standupbot

go 1.16

require (
	github.com/google/uuid v1.3.0
	github.com/kyoh86/xdg v1.2.0
	github.com/mattn/go-sqlite3 v1.14.12
	github.com/sethvargo/go-retry v0.1.0
	github.com/sirupsen/logrus v1.8.1
	maunium.net/go/mautrix v0.10.12
)
